Exercise4/Stump_tb_results.vcd
$date
	Thu Dec 17 17:45:21 2020
$end
$version
	Icarus Verilog
$end
$timescale
	1s
$end
$scope module Stump_tb $end
$var wire 1 ! mem_wen $end
$var wire 1 " mem_ren $end
$var wire 16 # data_out [15:0] $end
$var wire 16 $ address [15:0] $end
$var reg 1 % clk $end
$var reg 16 & data_in [15:0] $end
$var reg 1 ' rst $end
$scope module Processor $end
$var wire 1 % clk $end
$var wire 16 ( data_in [15:0] $end
$var wire 1 ' rst $end
$var wire 3 ) srcC [2:0] $end
$var wire 3 * srcB [2:0] $end
$var wire 3 + srcA [2:0] $end
$var wire 2 , shift_op [1:0] $end
$var wire 1 - reg_write $end
$var wire 16 . regC [15:0] $end
$var wire 1 / opB_mux_sel $end
$var wire 1 0 memory $end
$var wire 1 ! mem_wen $end
$var wire 1 " mem_ren $end
$var wire 16 1 ir [15:0] $end
$var wire 1 2 fetch $end
$var wire 1 3 ext_op $end
$var wire 1 4 execute $end
$var wire 3 5 dest [2:0] $end
$var wire 16 6 data_out [15:0] $end
$var wire 1 7 cc_en $end
$var wire 4 8 cc [3:0] $end
$var wire 3 9 alu_func [2:0] $end
$var wire 16 : address [15:0] $end
$scope module control $end
$var wire 1 % clk $end
$var wire 1 ' rst $end
$var wire 2 ; state [1:0] $end
$var wire 3 < srcB [2:0] $end
$var wire 3 = srcA [2:0] $end
$var wire 2 > shift_op [1:0] $end
$var wire 1 - reg_write $end
$var wire 1 / opB_mux_sel $end
$var wire 1 0 memory $end
$var wire 1 ! mem_wen $end
$var wire 1 " mem_ren $end
$var wire 16 ? ir [15:0] $end
$var wire 1 2 fetch $end
$var wire 1 3 ext_op $end
$var wire 1 4 execute $end
$var wire 3 @ dest [2:0] $end
$var wire 1 7 cc_en $end
$var wire 4 A cc [3:0] $end
$var wire 3 B alu_func [2:0] $end
$scope module FSM $end
$var wire 1 % clk $end
$var wire 3 C opcode [2:0] $end
$var wire 1 ' rst $end
$var reg 2 D current_state [1:0] $end
$var reg 2 E next_state [1:0] $end
$var reg 2 F state [1:0] $end
$upscope $end
$scope module control_decode $end
$var wire 2 G state [1:0] $end
$var wire 16 H ir [15:0] $end
$var wire 4 I cc [3:0] $end
$var reg 3 J alu_func [2:0] $end
$var reg 1 7 cc_en $end
$var reg 3 K dest [2:0] $end
$var reg 1 4 execute $end
$var reg 1 3 ext_op $end
$var reg 1 2 fetch $end
$var reg 1 " mem_ren $end
$var reg 1 ! mem_wen $end
$var reg 1 0 memory $end
$var reg 1 / opB_mux_sel $end
$var reg 1 - reg_write $end
$var reg 2 L shift_op [1:0] $end
$var reg 3 M srcA [2:0] $end
$var reg 3 N srcB [2:0] $end
$scope function Testbranch $end
$var reg 1 O C $end
$var reg 4 P CC [3:0] $end
$var reg 1 Q N $end
$var reg 1 R Testbranch $end
$var reg 1 S V $end
$var reg 1 T Z $end
$var reg 4 U condition [3:0] $end
$upscope $end
$upscope $end
$upscope $end
$scope module datapath $end
$var wire 3 V alu_func [2:0] $end
$var wire 1 7 cc_en $end
$var wire 1 % clk $end
$var wire 16 W data_in [15:0] $end
$var wire 16 X data_out [15:0] $end
$var wire 3 Y dest [2:0] $end
$var wire 1 4 execute $end
$var wire 1 3 ext_op $end
$var wire 1 2 fetch $end
$var wire 1 0 memory $end
$var wire 1 / opB_mux_sel $end
$var wire 1 - reg_write $end
$var wire 1 ' rst $end
$var wire 2 Z shift_op [1:0] $end
$var wire 3 [ srcA [2:0] $end
$var wire 3 \ srcB [2:0] $end
$var wire 3 ] srcC [2:0] $end
$var wire 16 ^ src_2 [15:0] $end
$var wire 16 _ reg_data [15:0] $end
$var wire 16 ` regC [15:0] $end
$var wire 16 a regB [15:0] $end
$var wire 16 b regA [15:0] $end
$var wire 16 c operand_B [15:0] $end
$var wire 16 d operand_A [15:0] $end
$var wire 16 e ir [15:0] $end
$var wire 16 f immed [15:0] $end
$var wire 1 g csh $end
$var wire 4 h cc [3:0] $end
$var wire 16 i alu_out [15:0] $end
$var wire 4 j alu_flags [3:0] $end
$var wire 16 k address [15:0] $end
$var wire 16 l addr_reg [15:0] $end
$scope module Address $end
$var wire 1 4 CE $end
$var wire 1 % CLK $end
$var wire 16 m D [15:0] $end
$var reg 16 n Q [15:0] $end
$upscope $end
$scope module CC $end
$var wire 1 7 CE $end
$var wire 1 % CLK $end
$var wire 4 o D [3:0] $end
$var reg 4 p Q [3:0] $end
$upscope $end
$scope module IR $end
$var wire 1 2 CE $end
$var wire 1 % CLK $end
$var wire 16 q D [15:0] $end
$var reg 16 r Q [15:0] $end
$upscope $end
$scope module Sign_Extender $end
$var wire 8 s D [7:0] $end
$var wire 1 3 ext_op $end
$var reg 16 t Q [15:0] $end
$upscope $end
$scope module Stump_shift $end
$var wire 1 u c_in $end
$var wire 1 v c_out_i $end
$var wire 1 w c_out_t1 $end
$var wire 1 x c_out_t2 $end
$var wire 1 y c_out_t3 $end
$var wire 2 z shift_op [1:0] $end
$var wire 2 { shift_op_inv [1:0] $end
$var wire 16 | shift_out_i [15:0] $end
$var wire 16 } shift_out_t0 [15:0] $end
$var wire 16 ~ shift_out_t3 [15:0] $end
$var wire 16 !" shift_out_t2 [15:0] $end
$var wire 16 "" shift_out_t1 [15:0] $end
$var wire 16 #" operand_A [15:0] $end
$var reg 1 g c_out $end
$var reg 16 $" shift_out [15:0] $end
$upscope $end
$scope module alu $end
$var wire 1 %" c_in $end
$var wire 1 g csh $end
$var wire 3 &" func [2:0] $end
$var wire 16 '" operand_A [15:0] $end
$var wire 16 (" operand_B [15:0] $end
$var reg 1 )" C14 $end
$var reg 1 *" C15 $end
$var reg 4 +" flags_out [3:0] $end
$var reg 16 ," result [15:0] $end
$upscope $end
$scope module mux_1 $end
$var wire 16 -" D0 [15:0] $end
$var wire 16 ." D1 [15:0] $end
$var wire 1 0 S $end
$var reg 16 /" Q [15:0] $end
$upscope $end
$scope module mux_2 $end
$var wire 16 0" D1 [15:0] $end
$var wire 1 / S $end
$var wire 16 1" D0 [15:0] $end
$var reg 16 2" Q [15:0] $end
$upscope $end
$scope module mux_3 $end
$var wire 16 3" D0 [15:0] $end
$var wire 16 4" D1 [15:0] $end
$var wire 1 2 S $end
$var reg 16 5" Q [15:0] $end
$upscope $end
$scope module mux_4 $end
$var wire 16 6" D1 [15:0] $end
$var wire 1 0 S $end
$var wire 16 7" D0 [15:0] $end
$var reg 16 8" Q [15:0] $end
$upscope $end
$scope module registers $end
$var wire 16 9" PC [15:0] $end
$var wire 16 :" R0 [15:0] $end
$var wire 16 ;" R1 [15:0] $end
$var wire 16 <" R2 [15:0] $end
$var wire 16 =" R3 [15:0] $end
$var wire 16 >" R4 [15:0] $end
$var wire 16 ?" R5 [15:0] $end
$var wire 16 @" R6 [15:0] $end
$var wire 16 A" R7 [15:0] $end
$var wire 1 % clk $end
$var wire 3 B" read_addr_A [2:0] $end
$var wire 3 C" read_addr_B [2:0] $end
$var wire 3 D" read_addr_C [2:0] $end
$var wire 1 ' rst $end
$var wire 3 E" write_addr [2:0] $end
$var wire 16 F" write_data [15:0] $end
$var wire 1 - write_en $end
$var wire 16 G" read_data_C [15:0] $end
$var wire 16 H" read_data_B [15:0] $end
$var wire 16 I" read_data_A [15:0] $end
$upscope $end
$upscope $end
$upscope $end
$upscope $end
$enddefinitions $end
#0
$dumpvars
bx I"
bx H"
bx G"
bx F"
bx E"
b111 D"
bx C"
bx B"
bx A"
bx @"
bx ?"
bx >"
bx ="
bx <"
bx ;"
b0 :"
bx 9"
bx 8"
bx 7"
bx 6"
bx 5"
b1 4"
bx 3"
bx 2"
bx 1"
bx 0"
bx /"
bx ."
bx -"
bx ,"
bx +"
x*"
x)"
bx ("
bx '"
bx &"
x%"
bx $"
bx #"
bx ""
bx !"
bx ~
bx }
bx |
bx {
bx z
xy
xx
xw
xv
xu
bx t
bx s
bx r
bx q
bx p
bx o
bx n
bx m
bx l
bx k
bx j
bx i
bx h
xg
bx f
bx e
bx d
bx c
bx b
bx a
bx `
bx _
bx ^
b111 ]
bx \
bx [
bx Z
bx Y
bx X
bx W
bx V
bx U
xT
xS
xR
xQ
bx P
xO
bx N
bx M
bx L
bx K
bx J
bx I
bx H
bx G
bx F
bx E
bx D
bx C
bx B
bx A
bx @
bx ?
bx >
bx =
bx <
bx ;
bx :
bx 9
bx 8
x7
bx 6
bx 5
x4
x3
x2
bx 1
x0
x/
bx .
x-
bx ,
bx +
bx *
b111 )
bx (
0'
bx &
0%
bx $
bx #
x"
x!
$end
#5
1%
#10
0g
0v
b0 ""
0w
b0 !"
0x
b0 ~
0y
b11 {
b1 c
b1 ("
b1 5"
0!
1"
07
b0 9
b0 B
b0 J
b0 V
b0 &"
b0 ,
b0 >
b0 L
b0 Z
b0 z
b111 +
b111 =
b111 M
b111 [
b111 B"
b111 5
b111 @
b111 K
b111 Y
b111 E"
1-
03
00
04
12
b0 ;
b0 F
b0 G
b1 E
b0 D
0%
1'
#15
b1 _
b1 /"
b1 F"
0*"
0)"
b0 j
b0 o
b0 +"
b1 i
b1 m
b1 ,"
b1 -"
b0 d
b0 $"
b0 '"
b0 |
b0 }
b0 $
b0 :
b0 k
b0 8"
b0 #
b0 6
b0 X
b0 b
b0 #"
b0 7"
b0 I"
b0 .
b0 `
b0 G"
b0 A"
b0 9"
1%
#17
b1100100000000000 &
b1100100000000000 (
b1100100000000000 W
b1100100000000000 q
b1100100000000000 ."
#20
0%
0'
#25
b0 _
b0 /"
b0 F"
b0 ^
b0 2"
b0 3"
b0 d
b0 $"
b0 '"
0*"
0)"
b100 j
b100 o
b100 +"
b0 i
b0 m
b0 ,"
b0 -"
b0 a
b0 1"
b0 H"
b0 c
b0 ("
b0 5"
b0 |
0-
07
b0 9
b0 B
b0 J
b0 V
b0 &"
0/
b0 *
b0 <
b0 N
b0 \
b0 C"
b0 +
b0 =
b0 M
b0 [
b0 B"
b0 5
b0 @
b0 K
b0 Y
b0 E"
0"
14
02
b0 }
b0 $
b0 :
b0 k
b0 8"
b0 f
b0 t
b0 0"
b1 ;
b1 F
b1 G
b10 E
b0 #
b0 6
b0 X
b0 b
b0 #"
b0 7"
b0 I"
b1 .
b1 `
b1 G"
b0 s
b110 C
b1 D
b1 A"
b1 9"
b1100100000000000 1
b1100100000000000 ?
b1100100000000000 H
b1100100000000000 e
b1100100000000000 r
1%
#27
bx &
bx (
bx W
bx q
bx ."
#30
0%
#35
bx c
bx ("
bx 5"
bx ^
bx 2"
bx 3"
bx j
bx o
bx +"
bx i
bx m
bx ,"
bx -"
b1x {
bx a
bx 1"
bx H"
bx _
bx /"
bx F"
1!
bx 9
bx B
bx J
bx V
bx &"
b0x ,
b0x >
b0x L
b0x Z
b0x z
bx *
bx <
bx N
bx \
bx C"
b0 +
b0 =
b0 M
b0 [
b0 B"
bx 5
bx @
bx K
bx Y
bx E"
10
04
b10 ;
b10 F
b10 G
b0 E
b10 D
b0 l
b0 n
b0 6"
1%
#40
0%
#45
0)"
b1 d
b1 $"
b1 '"
b1 |
b10 _
b10 /"
b10 F"
b1 }
b1 $
b1 :
b1 k
b1 8"
b0 j
b0 o
b0 +"
b10 i
b10 m
b10 ,"
b10 -"
b11 {
b1 #
b1 6
b1 X
b1 b
b1 #"
b1 7"
b1 I"
b1 c
b1 ("
b1 5"
0!
1"
b0 9
b0 B
b0 J
b0 V
b0 &"
x/
b0 ,
b0 >
b0 L
b0 Z
b0 z
b111 +
b111 =
b111 M
b111 [
b111 B"
b111 5
b111 @
b111 K
b111 Y
b111 E"
1-
00
12
b0 ;
b0 F
b0 G
b1 E
b0 D
1%
#47
b1000100011111 &
b1000100011111 (
b1000100011111 W
b1000100011111 q
b1000100011111 ."
#50
0%
#55
b1111111111111111 _
b1111111111111111 /"
b1111111111111111 F"
b1000 j
b1000 o
b1000 +"
0*"
0)"
b1111111111111111 i
b1111111111111111 m
b1111111111111111 ,"
b1111111111111111 -"
b0 d
b0 $"
b0 '"
b1111111111111111 c
b1111111111111111 ("
b1111111111111111 5"
b1111111111111111 ^
b1111111111111111 2"
b1111111111111111 3"
b0 |
1/
b0 +
b0 =
b0 M
b0 [
b0 B"
b1 5
b1 @
b1 K
b1 Y
b1 E"
0"
14
02
b1111111111111111 f
b1111111111111111 t
b1111111111111111 0"
b0 }
b0 $
b0 :
b0 k
b0 8"
b1 ;
b1 F
b1 G
b0 E
b11111 s
b0 C
b0 #
b0 6
b0 X
b0 b
b0 #"
b0 7"
b0 I"
b10 .
b10 `
b10 G"
b1 D
b1000100011111 1
b1000100011111 ?
b1000100011111 H
b1000100011111 e
b1000100011111 r
b10 A"
b10 9"
1%
#57
bx &
bx (
bx W
bx q
bx ."
#60
0%
#65
b10 d
b10 $"
b10 '"
b10 |
b11 _
b11 /"
b11 F"
b10 }
b10 $
b10 :
b10 k
b10 8"
b0 j
b0 o
b0 +"
b11 i
b11 m
b11 ,"
b11 -"
bx ^
bx 2"
bx 3"
b10 #
b10 6
b10 X
b10 b
b10 #"
b10 7"
b10 I"
b1 c
b1 ("
b1 5"
1"
x/
b111 +
b111 =
b111 M
b111 [
b111 B"
b111 5
b111 @
b111 K
b111 Y
b111 E"
04
12
b0 ;
b0 F
b0 G
b1 E
b0 D
b1111111111111111 ;"
b1111111111111111 l
b1111111111111111 n
b1111111111111111 6"
1%
#67
b1101100100000001 &
b1101100100000001 (
b1101100100000001 W
b1101100100000001 q
b1101100100000001 ."
#70
0%
#75
b1 _
b1 /"
b1 F"
b1 i
b1 m
b1 ,"
b1 -"
b0 d
b0 $"
b0 '"
b1 ^
b1 2"
b1 3"
b0 |
0-
07
b0 9
b0 B
b0 J
b0 V
b0 &"
1/
b0 +
b0 =
b0 M
b0 [
b0 B"
b1 5
b1 @
b1 K
b1 Y
b1 E"
0"
14
02
b1 f
b1 t
b1 0"
b0 }
b0 $
b0 :
b0 k
b0 8"
b1 ;
b1 F
b1 G
b10 E
b1 s
b110 C
b0 #
b0 6
b0 X
b0 b
b0 #"
b0 7"
b0 I"
b11 .
b11 `
b11 G"
b1 D
b1101100100000001 1
b1101100100000001 ?
b1101100100000001 H
b1101100100000001 e
b1101100100000001 r
b11 A"
b11 9"
1%
#77
bx &
bx (
bx W
bx q
bx ."
#80
0%
#85
xg
bx d
bx $"
bx '"
xv
bx |
bx ""
xw
bx }
bx j
bx o
bx +"
bx i
bx m
bx ,"
bx -"
b1x {
b1111111111111111 #
b1111111111111111 6
b1111111111111111 X
b1111111111111111 b
b1111111111111111 #"
b1111111111111111 7"
b1111111111111111 I"
bx _
bx /"
bx F"
b1 $
b1 :
b1 k
b1 8"
1!
bx 9
bx B
bx J
bx V
bx &"
b0x ,
b0x >
b0x L
b0x Z
b0x z
b1 +
b1 =
b1 M
b1 [
b1 B"
bx 5
bx @
bx K
bx Y
bx E"
10
04
b10 ;
b10 F
b10 G
b0 E
b10 D
b1 l
b1 n
b1 6"
1%
#90
0%
#95
b100 _
b100 /"
b100 F"
b100 i
b100 m
b100 ,"
b100 -"
b0 j
b0 o
b0 +"
0g
b11 d
b11 $"
b11 '"
0v
b11 |
b0 ""
0w
b11 }
0*"
0)"
bx ^
bx 2"
bx 3"
b11 {
b11 #
b11 6
b11 X
b11 b
b11 #"
b11 7"
b11 I"
b11 $
b11 :
b11 k
b11 8"
0!
1"
b0 9
b0 B
b0 J
b0 V
b0 &"
x/
b0 ,
b0 >
b0 L
b0 Z
b0 z
b111 +
b111 =
b111 M
b111 [
b111 B"
b111 5
b111 @
b111 K
b111 Y
b111 E"
1-
00
12
b0 ;
b0 F
b0 G
b1 E
b0 D
1%
#97
b1001000011110 &
b1001000011110 (
b1001000011110 W
b1001000011110 q
b1001000011110 ."
#100
0%
#105
b1111111111111110 _
b1111111111111110 /"
b1111111111111110 F"
b1000 j
b1000 o
b1000 +"
0*"
0)"
b1111111111111110 i
b1111111111111110 m
b1111111111111110 ,"
b1111111111111110 -"
b0 d
b0 $"
b0 '"
b1111111111111110 c
b1111111111111110 ("
b1111111111111110 5"
b0 |
b1111111111111110 ^
b1111111111111110 2"
b1111111111111110 3"
1/
b0 +
b0 =
b0 M
b0 [
b0 B"
b10 5
b10 @
b10 K
b10 Y
b10 E"
0"
14
02
b0 }
b0 $
b0 :
b0 k
b0 8"
b1111111111111110 f
b1111111111111110 t
b1111111111111110 0"
b1 ;
b1 F
b1 G
b0 E
b0 #
b0 6
b0 X
b0 b
b0 #"
b0 7"
b0 I"
b100 .
b100 `
b100 G"
b11110 s
b0 C
b1 D
b100 A"
b100 9"
b1001000011110 1
b1001000011110 ?
b1001000011110 H
b1001000011110 e
b1001000011110 r
1%
#107
bx &
bx (
bx W
bx q
bx ."
#110
0%
#115
b100 d
b100 $"
b100 '"
b100 |
b101 _
b101 /"
b101 F"
b100 }
b100 $
b100 :
b100 k
b100 8"
b0 j
b0 o
b0 +"
b101 i
b101 m
b101 ,"
b101 -"
bx ^
bx 2"
bx 3"
b100 #
b100 6
b100 X
b100 b
b100 #"
b100 7"
b100 I"
b1 c
b1 ("
b1 5"
1"
x/
b111 +
b111 =
b111 M
b111 [
b111 B"
b111 5
b111 @
b111 K
b111 Y
b111 E"
04
12
b0 ;
b0 F
b0 G
b1 E
b0 D
b1111111111111110 l
b1111111111111110 n
b1111111111111110 6"
b1111111111111110 <"
1%
#117
b1101101000000010 &
b1101101000000010 (
b1101101000000010 W
b1101101000000010 q
b1101101000000010 ."
#120
0%
#125
b10 _
b10 /"
b10 F"
b0 d
b0 $"
b0 '"
b10 i
b10 m
b10 ,"
b10 -"
b10 c
b10 ("
b10 5"
b0 |
b10 ^
b10 2"
b10 3"
0-
07
b0 9
b0 B
b0 J
b0 V
b0 &"
1/
b0 +
b0 =
b0 M
b0 [
b0 B"
b10 5
b10 @
b10 K
b10 Y
b10 E"
0"
14
02
b0 }
b0 $
b0 :
b0 k
b0 8"
b10 f
b10 t
b10 0"
b1 ;
b1 F
b1 G
b10 E
b0 #
b0 6
b0 X
b0 b
b0 #"
b0 7"
b0 I"
b101 .
b101 `
b101 G"
b10 s
b110 C
b1 D
b101 A"
b101 9"
b1101101000000010 1
b1101101000000010 ?
b1101101000000010 H
b1101101000000010 e
b1101101000000010 r
1%
#127
bx &
bx (
bx W
bx q
bx ."
#130
0%
#135
bx d
bx $"
bx '"
bx |
bx ""
bx0 }
bx j
bx o
bx +"
bx i
bx m
bx ,"
bx -"
b1x {
b1111111111111110 #
b1111111111111110 6
b1111111111111110 X
b1111111111111110 b
b1111111111111110 #"
b1111111111111110 7"
b1111111111111110 I"
bx _
bx /"
bx F"
b10 $
b10 :
b10 k
b10 8"
1!
bx 9
bx B
bx J
bx V
bx &"
b0x ,
b0x >
b0x L
b0x Z
b0x z
b10 +
b10 =
b10 M
b10 [
b10 B"
bx 5
bx @
bx K
bx Y
bx E"
10
04
b10 ;
b10 F
b10 G
b0 E
b10 D
b10 l
b10 n
b10 6"
1%
#140
0%
#145
b110 _
b110 /"
b110 F"
b110 i
b110 m
b110 ,"
b110 -"
b0 j
b0 o
b0 +"
b101 d
b101 $"
b101 '"
b101 |
b0 ""
b101 }
0*"
0)"
bx ^
bx 2"
bx 3"
b11 {
b101 #
b101 6
b101 X
b101 b
b101 #"
b101 7"
b101 I"
b101 $
b101 :
b101 k
b101 8"
b1 c
b1 ("
b1 5"
0!
1"
b0 9
b0 B
b0 J
b0 V
b0 &"
x/
b0 ,
b0 >
b0 L
b0 Z
b0 z
b111 +
b111 =
b111 M
b111 [
b111 B"
b111 5
b111 @
b111 K
b111 Y
b111 E"
1-
00
12
b0 ;
b0 F
b0 G
b1 E
b0 D
1%
#147
b1001100011101 &
b1001100011101 (
b1001100011101 W
b1001100011101 q
b1001100011101 ."
#150
0%
#155
b1111111111111101 _
b1111111111111101 /"
b1111111111111101 F"
b1000 j
b1000 o
b1000 +"
0*"
0)"
b1111111111111101 i
b1111111111111101 m
b1111111111111101 ,"
b1111111111111101 -"
b0 d
b0 $"
b0 '"
b1111111111111101 c
b1111111111111101 ("
b1111111111111101 5"
b1111111111111101 ^
b1111111111111101 2"
b1111111111111101 3"
b0 |
1/
b0 +
b0 =
b0 M
b0 [
b0 B"
b11 5
b11 @
b11 K
b11 Y
b11 E"
0"
14
02
b1111111111111101 f
b1111111111111101 t
b1111111111111101 0"
b0 }
b0 $
b0 :
b0 k
b0 8"
b1 ;
b1 F
b1 G
b0 E
b11101 s
b0 C
b0 #
b0 6
b0 X
b0 b
b0 #"
b0 7"
b0 I"
b110 .
b110 `
b110 G"
b1 D
b1001100011101 1
b1001100011101 ?
b1001100011101 H
b1001100011101 e
b1001100011101 r
b110 A"
b110 9"
1%
#157
bx &
bx (
bx W
bx q
bx ."
#160
0%
#165
b110 d
b110 $"
b110 '"
b110 |
b111 _
b111 /"
b111 F"
b110 }
b110 $
b110 :
b110 k
b110 8"
b0 j
b0 o
b0 +"
b111 i
b111 m
b111 ,"
b111 -"
bx ^
bx 2"
bx 3"
b110 #
b110 6
b110 X
b110 b
b110 #"
b110 7"
b110 I"
b1 c
b1 ("
b1 5"
1"
x/
b111 +
b111 =
b111 M
b111 [
b111 B"
b111 5
b111 @
b111 K
b111 Y
b111 E"
04
12
b0 ;
b0 F
b0 G
b1 E
b0 D
b1111111111111101 ="
b1111111111111101 l
b1111111111111101 n
b1111111111111101 6"
1%
#167
b1101101100000011 &
b1101101100000011 (
b1101101100000011 W
b1101101100000011 q
b1101101100000011 ."
#170
0%
#175
b11 _
b11 /"
b11 F"
b0 d
b0 $"
b0 '"
b11 i
b11 m
b11 ,"
b11 -"
b11 c
b11 ("
b11 5"
b11 ^
b11 2"
b11 3"
b0 |
0-
07
b0 9
b0 B
b0 J
b0 V
b0 &"
1/
b0 +
b0 =
b0 M
b0 [
b0 B"
b11 5
b11 @
b11 K
b11 Y
b11 E"
0"
14
02
b11 f
b11 t
b11 0"
b0 }
b0 $
b0 :
b0 k
b0 8"
b1 ;
b1 F
b1 G
b10 E
b11 s
b110 C
b0 #
b0 6
b0 X
b0 b
b0 #"
b0 7"
b0 I"
b111 .
b111 `
b111 G"
b1 D
b1101101100000011 1
b1101101100000011 ?
b1101101100000011 H
b1101101100000011 e
b1101101100000011 r
b111 A"
b111 9"
1%
#177
bx &
bx (
bx W
bx q
bx ."
#180
0%
#185
xg
bx d
bx $"
bx '"
xv
bx |
bx0 ""
xw
bx0x }
bx j
bx o
bx +"
bx i
bx m
bx ,"
bx -"
b1x {
b1111111111111101 #
b1111111111111101 6
b1111111111111101 X
b1111111111111101 b
b1111111111111101 #"
b1111111111111101 7"
b1111111111111101 I"
bx _
bx /"
bx F"
b11 $
b11 :
b11 k
b11 8"
1!
bx 9
bx B
bx J
bx V
bx &"
b0x ,
b0x >
b0x L
b0x Z
b0x z
b11 +
b11 =
b11 M
b11 [
b11 B"
bx 5
bx @
bx K
bx Y
bx E"
10
04
b10 ;
b10 F
b10 G
b0 E
b10 D
b11 l
b11 n
b11 6"
1%
#190
0%
#195
b1000 _
b1000 /"
b1000 F"
b1000 i
b1000 m
b1000 ,"
b1000 -"
b0 j
b0 o
b0 +"
0g
b111 d
b111 $"
b111 '"
0v
b111 |
b0 ""
0w
b111 }
0*"
0)"
bx ^
bx 2"
bx 3"
b11 {
b111 #
b111 6
b111 X
b111 b
b111 #"
b111 7"
b111 I"
b111 $
b111 :
b111 k
b111 8"
b1 c
b1 ("
b1 5"
0!
1"
b0 9
b0 B
b0 J
b0 V
b0 &"
x/
b0 ,
b0 >
b0 L
b0 Z
b0 z
b111 +
b111 =
b111 M
b111 [
b111 B"
b111 5
b111 @
b111 K
b111 Y
b111 E"
1-
00
12
b0 ;
b0 F
b0 G
b1 E
b0 D
1%
#197
b1010000011100 &
b1010000011100 (
b1010000011100 W
b1010000011100 q
b1010000011100 ."
#200
0%
#205
b1111111111111100 _
b1111111111111100 /"
b1111111111111100 F"
b1000 j
b1000 o
b1000 +"
0*"
0)"
b1111111111111100 i
b1111111111111100 m
b1111111111111100 ,"
b1111111111111100 -"
b0 d
b0 $"
b0 '"
b1111111111111100 c
b1111111111111100 ("
b1111111111111100 5"
b0 |
b1111111111111100 ^
b1111111111111100 2"
b1111111111111100 3"
1/
b0 +
b0 =
b0 M
b0 [
b0 B"
b100 5
b100 @
b100 K
b100 Y
b100 E"
0"
14
02
b0 }
b0 $
b0 :
b0 k
b0 8"
b1111111111111100 f
b1111111111111100 t
b1111111111111100 0"
b1 ;
b1 F
b1 G
b0 E
b0 #
b0 6
b0 X
b0 b
b0 #"
b0 7"
b0 I"
b1000 .
b1000 `
b1000 G"
b11100 s
b0 C
b1 D
b1000 A"
b1000 9"
b1010000011100 1
b1010000011100 ?
b1010000011100 H
b1010000011100 e
b1010000011100 r
1%
#207
bx &
bx (
bx W
bx q
bx ."
#210
0%
#215
b1000 d
b1000 $"
b1000 '"
b1000 |
b1001 _
b1001 /"
b1001 F"
b1000 }
b1000 $
b1000 :
b1000 k
b1000 8"
b0 j
b0 o
b0 +"
b1001 i
b1001 m
b1001 ,"
b1001 -"
bx ^
bx 2"
bx 3"
b1000 #
b1000 6
b1000 X
b1000 b
b1000 #"
b1000 7"
b1000 I"
b1 c
b1 ("
b1 5"
1"
x/
b111 +
b111 =
b111 M
b111 [
b111 B"
b111 5
b111 @
b111 K
b111 Y
b111 E"
04
12
b0 ;
b0 F
b0 G
b1 E
b0 D
b1111111111111100 l
b1111111111111100 n
b1111111111111100 6"
b1111111111111100 >"
1%
#217
b1101110000000100 &
b1101110000000100 (
b1101110000000100 W
b1101110000000100 q
b1101110000000100 ."
#220
0%
#225
b100 _
b100 /"
b100 F"
b0 d
b0 $"
b0 '"
b100 i
b100 m
b100 ,"
b100 -"
b100 c
b100 ("
b100 5"
b0 |
b100 ^
b100 2"
b100 3"
0-
07
b0 9
b0 B
b0 J
b0 V
b0 &"
1/
b0 +
b0 =
b0 M
b0 [
b0 B"
b100 5
b100 @
b100 K
b100 Y
b100 E"
0"
14
02
b0 }
b0 $
b0 :
b0 k
b0 8"
b100 f
b100 t
b100 0"
b1 ;
b1 F
b1 G
b10 E
b0 #
b0 6
b0 X
b0 b
b0 #"
b0 7"
b0 I"
b1001 .
b1001 `
b1001 G"
b100 s
b110 C
b1 D
b1001 A"
b1001 9"
b1101110000000100 1
b1101110000000100 ?
b1101110000000100 H
b1101110000000100 e
b1101110000000100 r
1%
#227
bx &
bx (
bx W
bx q
bx ."
#230
0%
#235
bx0 d
bx0 $"
bx0 '"
bx0 |
bx0 ""
bx00 }
bx j
bx o
bx +"
bx i
bx m
bx ,"
bx -"
b1x {
b1111111111111100 #
b1111111111111100 6
b1111111111111100 X
b1111111111111100 b
b1111111111111100 #"
b1111111111111100 7"
b1111111111111100 I"
bx _
bx /"
bx F"
b100 $
b100 :
b100 k
b100 8"
1!
bx 9
bx B
bx J
bx V
bx &"
b0x ,
b0x >
b0x L
b0x Z
b0x z
b100 +
b100 =
b100 M
b100 [
b100 B"
bx 5
bx @
bx K
bx Y
bx E"
10
04
b10 ;
b10 F
b10 G
b0 E
b10 D
b100 l
b100 n
b100 6"
1%
#240
0%
#245
b1010 _
b1010 /"
b1010 F"
b1010 i
b1010 m
b1010 ,"
b1010 -"
b0 j
b0 o
b0 +"
b1001 d
b1001 $"
b1001 '"
b1001 |
b0 ""
b1001 }
0*"
0)"
bx ^
bx 2"
bx 3"
b11 {
b1001 #
b1001 6
b1001 X
b1001 b
b1001 #"
b1001 7"
b1001 I"
b1001 $
b1001 :
b1001 k
b1001 8"
b1 c
b1 ("
b1 5"
0!
1"
b0 9
b0 B
b0 J
b0 V
b0 &"
x/
b0 ,
b0 >
b0 L
b0 Z
b0 z
b111 +
b111 =
b111 M
b111 [
b111 B"
b111 5
b111 @
b111 K
b111 Y
b111 E"
1-
00
12
b0 ;
b0 F
b0 G
b1 E
b0 D
1%
#247
b1010100011011 &
b1010100011011 (
b1010100011011 W
b1010100011011 q
b1010100011011 ."
#250
0%
#255
b1111111111111011 _
b1111111111111011 /"
b1111111111111011 F"
b1000 j
b1000 o
b1000 +"
0*"
0)"
b1111111111111011 i
b1111111111111011 m
b1111111111111011 ,"
b1111111111111011 -"
b0 d
b0 $"
b0 '"
b1111111111111011 c
b1111111111111011 ("
b1111111111111011 5"
b1111111111111011 ^
b1111111111111011 2"
b1111111111111011 3"
b0 |
1/
b0 +
b0 =
b0 M
b0 [
b0 B"
b101 5
b101 @
b101 K
b101 Y
b101 E"
0"
14
02
b1111111111111011 f
b1111111111111011 t
b1111111111111011 0"
b0 }
b0 $
b0 :
b0 k
b0 8"
b1 ;
b1 F
b1 G
b0 E
b11011 s
b0 C
b0 #
b0 6
b0 X
b0 b
b0 #"
b0 7"
b0 I"
b1010 .
b1010 `
b1010 G"
b1 D
b1010100011011 1
b1010100011011 ?
b1010100011011 H
b1010100011011 e
b1010100011011 r
b1010 A"
b1010 9"
1%
#257
bx &
bx (
bx W
bx q
bx ."
#260
0%
#265
b1010 d
b1010 $"
b1010 '"
b1010 |
b1011 _
b1011 /"
b1011 F"
b1010 }
b1010 $
b1010 :
b1010 k
b1010 8"
b0 j
b0 o
b0 +"
b1011 i
b1011 m
b1011 ,"
b1011 -"
bx ^
bx 2"
bx 3"
b1010 #
b1010 6
b1010 X
b1010 b
b1010 #"
b1010 7"
b1010 I"
b1 c
b1 ("
b1 5"
1"
x/
b111 +
b111 =
b111 M
b111 [
b111 B"
b111 5
b111 @
b111 K
b111 Y
b111 E"
04
12
b0 ;
b0 F
b0 G
b1 E
b0 D
b1111111111111011 ?"
b1111111111111011 l
b1111111111111011 n
b1111111111111011 6"
1%
#267
b1101110100000101 &
b1101110100000101 (
b1101110100000101 W
b1101110100000101 q
b1101110100000101 ."
#270
0%
